…
d <- e2 %>%
    filter(!is.na(e2$`Time Event Started`))
length(unique(d$ts_date))

## [1] 13

d <- neuro.color %>%
    group_by(neuro.date) %>%
        summarise(neuro.count=n_distinct(`Time Event Started`, na.rm = TRUE)) %>%
            mutate(dayofweek=wday(neuro.date,label = TRUE))
d

## # A tibble: 26 x 3
##    neuro.date neuro.count dayofweek
##    <date>           <int> <ord>    
##  1 2018-02-11           1 Sun      
##  2 2018-02-12           0 Mon      
##  3 2018-02-13           0 Tue      
##  4 2018-02-14           2 Wed      
##  5 2018-02-15           1 Thu      
##  6 2018-02-16           0 Fri      
##  7 2018-02-17           1 Sat      
##  8 2018-02-18           2 Sun      
##  9 2018-02-19           0 Mon      
## 10 2018-02-20           0 Tue      
## # ... with 16 more rows
…
c <- e2 %>%
    group_by(ts_date) %>%
        summarise(mean_sys=mean(`Systolic (mmHg)`,na.rm = TRUE),
                  mean_w=mean(`Weight (lbs)`,na.rm = TRUE),
                  urine=sum(`Overnight cath volume`,`IO Cath Volume mL`,`Peed around cath diaper weight`, `Wet diaper between cath weight`, na.rm = TRUE))
c

## # A tibble: 26 x 4
##    ts_date    mean_sys mean_w urine
##    <date>        <dbl>  <dbl> <dbl>
##  1 2018-02-11      118   39.0  2269
##  2 2018-02-12      121   40.0  1713
##  3 2018-02-13      139   39.8  1940
##  4 2018-02-14      112   38.8  3567
##  5 2018-02-15      145   38.2  2375
##  6 2018-02-16      154  NaN    1900
##  7 2018-02-17      125   40.4  1586
##  8 2018-02-18      NaN   39.2  2083
##  9 2018-02-19      124   38.8  2892
## 10 2018-02-20      155   39.8  2181
## # ... with 16 more rows
…
